rm -f *.o *.mod 1Dfortran
gfortran -O2 -c main1D_cb.f90
gfortran -O2 -o 1Dfortran main1D_cb.o 
 case :            0
 M  :      4194304
 dx :    2.3841863594499491E-007
 dt :   0.10000000149011612     
 eps:    9.9999997171806854E-010
 k=           0 : RMS U =   4.5419274131920109E-002
 k=           1 : RMS U =   2.2806369670187447E-002
 k=           2 : RMS U =   1.1477009052173038E-002
 k=           3 : RMS U =   5.7761426220943237E-003
 k=           4 : RMS U =   2.9070236258130172E-003
 k=           5 : RMS U =   1.4630503552966159E-003
 k=           6 : RMS U =   7.3632575083355486E-004
 k=           7 : RMS U =   3.7057891376947994E-004
 k=           8 : RMS U =   1.8650540359290755E-004
 k=           9 : RMS U =   9.3864664924180678E-005
 k=          10 : RMS U =   4.7240322000687021E-005
 k=          11 : RMS U =   2.3775166345211065E-005
 k=          12 : RMS U =   1.1965594458372404E-005
 k=          13 : RMS U =   6.0220588415111789E-006
 k=          14 : RMS U =   3.0307890526311500E-006
 k=          15 : RMS U =   1.5253391750549400E-006
 k=          16 : RMS U =   7.6767453695704456E-007
 k=          17 : RMS U =   3.8635616484187990E-007
 k=          18 : RMS U =   1.9444580795652054E-007
 k=          19 : RMS U =   9.7860923357012612E-008
 k=          20 : RMS U =   4.9251560431662014E-008
 k=          21 : RMS U =   2.4787383021170667E-008
 k=          22 : RMS U =   1.2475022664008983E-008
 k=          23 : RMS U =   6.2784490585889175E-009
 k=          24 : RMS U =   3.1598274193836577E-009
 k=          25 : RMS U =   1.5902757060016915E-009
 The simulation has converged in           26  iterations
 Time in seconds =    5.39200020    
 result samples:
 u[           1 ] =   -1.1920951523408722E-007
 u[      419431 ] =    4.4999924215650654E-002
 u[      838861 ] =    7.9999934284433957E-002
 u[     1258291 ] =   0.10499994472312767     
 u[     1677721 ] =   0.11999995207059130     
 u[     2097151 ] =   0.12499996232166970     
 u[     2516581 ] =   0.11999998336448561     
 u[     2936011 ] =   0.10500001793479423     
 u[     3355441 ] =    8.0000071199071113E-002
 u[     3774871 ] =    4.5000143416066660E-002
 u[     4194301 ] =    2.3841839455194547E-007
julia version 1.1.1
case : diffusion
M  : 4194304
dx : 2.384186359449949e-7
dt : 0.1
eps: 1.0e-9
k=0: RMS U =0.04541930655977789
k=1: RMS U =0.02280639705782239
k=2: RMS U =0.011477028440911339
k=3: RMS U =0.005776155202272828
k=4: RMS U =0.0029070313775824415
k=5: RMS U =0.0014630549714765738
k=6: RMS U =0.0007363284338471157
k=7: RMS U =0.0003705804451420724
k=8: RMS U =0.0001865062654347751
k=9: RMS U =9.386514453889866e-5
k=10: RMS U =4.724058646862954e-5
k=11: RMS U =2.3775311069464446e-5
k=12: RMS U =1.1965673132336229e-5
k=13: RMS U =6.022101377034806e-6
k=14: RMS U =3.0308119468398774e-6
k=15: RMS U =1.525351437214306e-6
k=16: RMS U =7.676810883472729e-7
k=17: RMS U =3.863596566915328e-7
k=18: RMS U =1.944476536981402e-7
k=19: RMS U =9.786189923848613e-8
k=20: RMS U =4.925207016560845e-8
k=21: RMS U =2.478765958581615e-8
k=22: RMS U =1.2475168857008284e-8
k=23: RMS U =6.27851512264789e-9
k=24: RMS U =3.159857693604613e-9
k=25: RMS U =1.5903083092405828e-9
The simulation has converged in 26 iterations
Time in seconds = 69.937203312
result samples:
u[0] = 0.0
u[419430] = 0.04500004403415903
u[838860] = 0.08000005464617438
u[1258290] = 0.10500006551015428
u[1677720] = 0.12000007312764362
u[2097150] = 0.12500008347120414
u[2516580] = 0.12000010442145113
u[2936010] = 0.10500013872166199
u[3355440] = 0.08000019156068937
u[3774870] = 0.0450002632343828
u[4194300] = 3.576277241656678e-7
case : diffusion
M  : 4194304
dx : 2.384186359449949e-7
dt : 0.1
eps: 1.0e-9
k=0: RMS U =0.04541927413192138
k=1: RMS U =0.02280637001002757
k=2: RMS U =0.011477009394214931
k=3: RMS U =0.00577614288030919
k=4: RMS U =0.0029070237990800447
k=5: RMS U =0.0014630504643036992
k=6: RMS U =0.000736325816658727
k=7: RMS U =0.0003705789524173863
k=8: RMS U =0.00018650542583187362
k=9: RMS U =9.386467751701585e-5
k=10: RMS U =4.7240329042606816e-5
k=11: RMS U =2.3775170240154275e-5
k=12: RMS U =1.196559660348847e-5
k=13: RMS U =6.0220599967910784e-6
k=14: RMS U =3.0307896925693147e-6
k=15: RMS U =1.5253395108420208e-6
k=16: RMS U =7.676747338788837e-7
k=17: RMS U =3.8635626374949263e-7
k=18: RMS U =1.9444585432654284e-7
k=19: RMS U =9.786094249936709e-8
k=20: RMS U =4.925157494958246e-8
k=21: RMS U =2.4787401652848974e-8
k=22: RMS U =1.2475028201778154e-8
k=23: RMS U =6.278447159441265e-9
k=24: RMS U =3.1598218036193156e-9
k=25: RMS U =1.5902840669814343e-9
The simulation has converged in 26 iterations
Time in seconds = 10.265032207
result samples:
u[0] = -1.1920951671438927e-7
u[419430] = 0.04499992482473523
u[838860] = 0.07999993543679544
u[1258290] = 0.10499994630079647
u[1677720] = 0.11999995391834647
u[2097150] = 0.12499996426193023
u[2516580] = 0.11999998521222201
u[2936010] = 0.10500001951243966
u[3355440] = 0.08000007235141963
u[3774870] = 0.045000144025146564
u[4194300] = 2.3841839751250414e-7
case : diffusion
M  : 4194304
dx : 2.384186359449949e-7
dt : 0.1
eps: 1.0e-9
k=0: RMS U =0.04541927413192138
k=1: RMS U =0.02280637001002757
k=2: RMS U =0.011477009394214931
k=3: RMS U =0.005776142880309191
k=4: RMS U =0.0029070237990800455
k=5: RMS U =0.0014630504643037016
k=6: RMS U =0.0007363258166587315
k=7: RMS U =0.00037057895241739537
k=8: RMS U =0.00018650542583189173
k=9: RMS U =9.386467751705188e-5
k=10: RMS U =4.724032904267848e-5
k=11: RMS U =2.377517024029672e-5
k=12: RMS U =1.1965596603771566e-5
k=13: RMS U =6.022059997353638e-6
k=14: RMS U =3.03078969368716e-6
k=15: RMS U =1.5253395130631962e-6
k=16: RMS U =7.676747382923316e-7
k=17: RMS U =3.863562725189007e-7
k=18: RMS U =1.9444587175107134e-7
k=19: RMS U =9.786097712127745e-8
k=20: RMS U =4.92516437419811e-8
k=21: RMS U =2.478753834037041e-8
k=22: RMS U =1.2475299792483372e-8
k=23: RMS U =6.27898678226253e-9
k=24: RMS U =3.1608938781521936e-9
k=25: RMS U =1.5924131662977755e-9
The simulation has converged in 26 iterations
Time in seconds = 8.322482309
result samples:
u[0] = -1.1920951671438927e-7
u[419430] = 0.04499992482473523
u[838860] = 0.07999993543679544
u[1258290] = 0.10499994630079647
u[1677720] = 0.11999995391834647
u[2097150] = 0.12499996426193023
u[2516580] = 0.11999998521222201
u[2936010] = 0.10500001951243966
u[3355440] = 0.08000007235141963
u[3774870] = 0.045000144025146564
u[4194300] = 2.3841839751250414e-7
case : diffusion
M  : 4194304
dx : 2.384186359449949e-7
dt : 0.1
eps: 1.0e-9
k=0: RMS U =0.04541927413192011
k=1: RMS U =0.022806370010027978
k=2: RMS U =0.01147700939421402
k=3: RMS U =0.005776142880309376
k=4: RMS U =0.002907023799079953
k=5: RMS U =0.0014630504643037324
k=6: RMS U =0.0007363258166587219
k=7: RMS U =0.00037057895241739483
k=8: RMS U =0.0001865054258318681
k=9: RMS U =9.386467751701669e-5
k=10: RMS U =4.724032904260689e-5
k=11: RMS U =2.377517024015295e-5
k=12: RMS U =1.1965596603487778e-5
k=13: RMS U =6.022059996790986e-6
k=14: RMS U =3.0307896925692677e-6
k=15: RMS U =1.52533951084201e-6
k=16: RMS U =7.676747338788945e-7
k=17: RMS U =3.8635626374947923e-7
k=18: RMS U =1.9444585432654678e-7
k=19: RMS U =9.786094249936604e-8
k=20: RMS U =4.9251574949580625e-8
k=21: RMS U =2.4787401652849136e-8
k=22: RMS U =1.2475028201777867e-8
k=23: RMS U =6.278447159440999e-9
k=24: RMS U =3.1598218036194538e-9
k=25: RMS U =1.5902840669815077e-9
The simulation has converged in 26 iterations
Time in seconds = 3.951101264
result samples:
u[0] = -1.1920951671438927e-7
u[419430] = 0.04499992482473523
u[838860] = 0.07999993543679544
u[1258290] = 0.10499994630079647
u[1677720] = 0.11999995391834647
u[2097150] = 0.12499996426193023
u[2516580] = 0.11999998521222201
u[2936010] = 0.10500001951243966
u[3355440] = 0.08000007235141963
u[3774870] = 0.045000144025146564
u[4194300] = 2.3841839751250414e-7
Python 3.6.8
case :  diffusion
M  :  2048
dx :  0.0004885197850512946
dt :  0.1
eps:  1e-09
Matrice M x M:  32768.0  kb
k= 0 : RMS U = 0.04540820084341894
k= 1 : RMS U = 0.022800814991621832
k= 2 : RMS U = 0.011474216548049301
k= 3 : RMS U = 0.005774738631769146
k= 4 : RMS U = 0.0029063177386194146
k= 5 : RMS U = 0.001462695454942714
k= 6 : RMS U = 0.0007361473172275884
k= 7 : RMS U = 0.00037048920250490255
k= 8 : RMS U = 0.0001864602994939637
k= 9 : RMS U = 9.384198804481491e-05
k= 10 : RMS U = 4.7228920707161827e-05
k= 11 : RMS U = 2.376943404711772e-05
k= 12 : RMS U = 1.1962712449818958e-05
k= 13 : RMS U = 6.020609872905838e-06
k= 14 : RMS U = 3.030060541556175e-06
k= 15 : RMS U = 1.5249729084578736e-06
k= 16 : RMS U = 7.674905161075075e-07
k= 17 : RMS U = 3.862635725530465e-07
k= 18 : RMS U = 1.9439928013921476e-07
k= 19 : RMS U = 9.783738944457878e-08
k= 20 : RMS U = 4.923990531228547e-08
k= 21 : RMS U = 2.478144816397912e-08
k= 22 : RMS U = 1.2472093487472915e-08
k= 23 : RMS U = 6.276940912776348e-09
k= 24 : RMS U = 3.159072844776306e-09
k= 25 : RMS U = 1.5899084849828113e-09
The simulation has converged in  26  iterations
Time in seconds =  2.7628816419746727
result samples:
u[ 0 ] =  2.7471540213905844e-12
u[ 204 ] =  0.04486315564070312
u[ 408 ] =  0.07979458714354178
u[ 612 ] =  0.10479429454218542
u[ 816 ] =  0.1198622778612552
u[ 1020 ] =  0.12499853711657169
u[ 1224 ] =  0.12020307231373109
u[ 1428 ] =  0.10547588344750425
u[ 1632 ] =  0.08081697050238792
u[ 1836 ] =  0.04622633345403546
u[ 2040 ] =  0.0017039722716814987
case :  diffusion
M  :  2048
dx :  0.0004885197850512946
dt :  0.1
eps:  1e-09
k= 0 : RMS U = 0.04540820084314683
k= 1 : RMS U = 0.02280081499139196
k= 2 : RMS U = 0.011474216547915889
k= 3 : RMS U = 0.005774738631629408
k= 4 : RMS U = 0.0029063177383935254
k= 5 : RMS U = 0.0014626954550261454
k= 6 : RMS U = 0.0007361473171720169
k= 7 : RMS U = 0.00037048920254622805
k= 8 : RMS U = 0.0001864602994571136
k= 9 : RMS U = 9.384198793041056e-05
k= 10 : RMS U = 4.722892071046853e-05
k= 11 : RMS U = 2.376943413803434e-05
k= 12 : RMS U = 1.1962712480867614e-05
k= 13 : RMS U = 6.0206098752793565e-06
k= 14 : RMS U = 3.0300605592214307e-06
k= 15 : RMS U = 1.52497291509361e-06
k= 16 : RMS U = 7.674904003029885e-07
k= 17 : RMS U = 3.8626359120542303e-07
k= 18 : RMS U = 1.9439925479404803e-07
k= 19 : RMS U = 9.78375158343781e-08
k= 20 : RMS U = 4.923979565011379e-08
k= 21 : RMS U = 2.4781469790707036e-08
k= 22 : RMS U = 1.2472051219630269e-08
k= 23 : RMS U = 6.276950589149108e-09
k= 24 : RMS U = 3.1590720943912036e-09
k= 25 : RMS U = 1.5899019000391898e-09
The simulation has converged in  26  iterations
Time in seconds =  0.2549980169860646
result samples:
u[ 0 ] =  0.0
u[ 204 ] =  0.04486315563833493
u[ 408 ] =  0.07979458714154374
u[ 612 ] =  0.10479429454051409
u[ 816 ] =  0.1198622778598503
u[ 1020 ] =  0.1249985371154239
u[ 1224 ] =  0.12020307231283343
u[ 1428 ] =  0.10547588344686047
u[ 1632 ] =  0.08081697050196458
u[ 1836 ] =  0.04622633345381467
u[ 2040 ] =  0.0017039722716743458
case :  diffusion
M  :  4194304
dx :  2.384186359449949e-07
dt :  0.1
eps:  1e-09
k= 0 : RMS U = 0.04541929034585286
k= 1 : RMS U = 0.022806383533925573
k= 2 : RMS U = 0.011477018917557901
k= 3 : RMS U = 0.005776149041287162
k= 4 : RMS U = 0.00290702758833304
k= 5 : RMS U = 0.00146305271789241
k= 6 : RMS U = 0.0007363271252510693
k= 7 : RMS U = 0.00037057969879061457
k= 8 : RMS U = 0.00018650584562294138
k= 9 : RMS U = 9.386491102502213e-05
k= 10 : RMS U = 4.724045775243597e-05
k= 11 : RMS U = 2.377524065888075e-05
k= 12 : RMS U = 1.1965634864860427e-05
k= 13 : RMS U = 6.022080696536944e-06
k= 14 : RMS U = 3.0308008157753167e-06
k= 15 : RMS U = 1.5253454749470189e-06
k= 16 : RMS U = 7.676779157309633e-07
k= 17 : RMS U = 3.863579646233591e-07
k= 18 : RMS U = 1.944467572617156e-07
k= 19 : RMS U = 9.786144133253901e-08
k= 20 : RMS U = 4.925186279531525e-08
k= 21 : RMS U = 2.478759628753772e-08
k= 22 : RMS U = 1.2475234992078685e-08
k= 23 : RMS U = 6.278757266154588e-09
k= 24 : RMS U = 3.160382215989953e-09
k= 25 : RMS U = 1.5913474946281343e-09
The simulation has converged in  26  iterations
Time in seconds =  540.7683949359925
result samples:
u[ 0 ] =  -1.1920954513617255e-07
u[ 419430 ] =  0.04499993674564948
u[ 838860 ] =  0.07999995927863772
u[ 1258290 ] =  0.10499998206356738
u[ 1677720 ] =  0.1200000016020448
u[ 2097150 ] =  0.12500002386654305
u[ 2516580 ] =  0.12000005673775406
u[ 2936010 ] =  0.10500010295888516
u[ 3355440 ] =  0.0800001677187809
u[ 3774870 ] =  0.0450002513134382
u[ 4194300 ] =  3.576276389009431e-07
case :  diffusion
M  :  4194304
dx :  2.384186359449949e-07
dt :  0.1
eps:  1e-09
k= 0 : RMS U = 0.04541927413192011
k= 1 : RMS U = 0.022806370010027978
k= 2 : RMS U = 0.01147700939421402
k= 3 : RMS U = 0.005776142880309376
k= 4 : RMS U = 0.002907023799079954
k= 5 : RMS U = 0.0014630504643037348
k= 6 : RMS U = 0.0007363258166587265
k= 7 : RMS U = 0.00037057895241740394
k= 8 : RMS U = 0.0001865054258318862
k= 9 : RMS U = 9.386467751705272e-05
k= 10 : RMS U = 4.724032904267855e-05
k= 11 : RMS U = 2.3775170240295394e-05
k= 12 : RMS U = 1.1965596603770875e-05
k= 13 : RMS U = 6.0220599973535464e-06
k= 14 : RMS U = 3.030789693687113e-06
k= 15 : RMS U = 1.5253395130631854e-06
k= 16 : RMS U = 7.676747382923425e-07
k= 17 : RMS U = 3.8635627251888736e-07
k= 18 : RMS U = 1.944458717510753e-07
k= 19 : RMS U = 9.786097712127639e-08
k= 20 : RMS U = 4.925164374197927e-08
k= 21 : RMS U = 2.4787538340370576e-08
k= 22 : RMS U = 1.2475299792483084e-08
k= 23 : RMS U = 6.278986782262263e-09
k= 24 : RMS U = 3.1608938781523305e-09
k= 25 : RMS U = 1.5924131662978435e-09
The simulation has converged in  26  iterations
Time in seconds =  309.29552124999464
result samples:
u[ 0 ] =  -1.1920951671438927e-07
u[ 419430 ] =  0.04499992482473523
u[ 838860 ] =  0.07999993543679544
u[ 1258290 ] =  0.10499994630079647
u[ 1677720 ] =  0.11999995391834647
u[ 2097150 ] =  0.12499996426193023
u[ 2516580 ] =  0.11999998521222201
u[ 2936010 ] =  0.10500001951243966
u[ 3355440 ] =  0.08000007235141963
u[ 3774870 ] =  0.045000144025146564
u[ 4194300 ] =  2.3841839751250414e-07
case :  diffusion
M  :  4194304
dx :  2.384186359449949e-07
dt :  0.1
eps:  1e-09
k= 0 : RMS U = 0.04541927413192011
k= 1 : RMS U = 0.022806370010027978
k= 2 : RMS U = 0.01147700939421402
k= 3 : RMS U = 0.005776142880309376
k= 4 : RMS U = 0.002907023799079954
k= 5 : RMS U = 0.0014630504643037348
k= 6 : RMS U = 0.0007363258166587265
k= 7 : RMS U = 0.00037057895241740394
k= 8 : RMS U = 0.0001865054258318862
k= 9 : RMS U = 9.386467751705272e-05
k= 10 : RMS U = 4.724032904267855e-05
k= 11 : RMS U = 2.3775170240295394e-05
k= 12 : RMS U = 1.1965596603770875e-05
k= 13 : RMS U = 6.0220599973535464e-06
k= 14 : RMS U = 3.030789693687113e-06
k= 15 : RMS U = 1.5253395130631854e-06
k= 16 : RMS U = 7.676747382923425e-07
k= 17 : RMS U = 3.8635627251888736e-07
k= 18 : RMS U = 1.944458717510753e-07
k= 19 : RMS U = 9.786097712127639e-08
k= 20 : RMS U = 4.925164374197927e-08
k= 21 : RMS U = 2.4787538340370576e-08
k= 22 : RMS U = 1.2475299792483084e-08
k= 23 : RMS U = 6.278986782262263e-09
k= 24 : RMS U = 3.1608938781523305e-09
k= 25 : RMS U = 1.5924131662978435e-09
The simulation has converged in  26  iterations
Time in seconds =  5.337024052976631
result samples:
u[ 0 ] =  -1.1920951671438927e-07
u[ 419430 ] =  0.04499992482473523
u[ 838860 ] =  0.07999993543679544
u[ 1258290 ] =  0.10499994630079647
u[ 1677720 ] =  0.11999995391834647
u[ 2097150 ] =  0.12499996426193023
u[ 2516580 ] =  0.11999998521222201
u[ 2936010 ] =  0.10500001951243966
u[ 3355440 ] =  0.08000007235141963
u[ 3774870 ] =  0.045000144025146564
u[ 4194300 ] =  2.3841839751250414e-07
case :  diffusion
M  :  4194304
dx :  2.384186359449949e-07
dt :  0.1
eps:  1e-09
k= 0 : RMS U = 0.04541927413192011
k= 1 : RMS U = 0.022806370010027978
k= 2 : RMS U = 0.01147700939421402
k= 3 : RMS U = 0.005776142880309376
k= 4 : RMS U = 0.002907023799079954
k= 5 : RMS U = 0.0014630504643037348
k= 6 : RMS U = 0.0007363258166587265
k= 7 : RMS U = 0.00037057895241740394
k= 8 : RMS U = 0.0001865054258318862
k= 9 : RMS U = 9.386467751705272e-05
k= 10 : RMS U = 4.724032904267855e-05
k= 11 : RMS U = 2.3775170240295394e-05
k= 12 : RMS U = 1.1965596603770875e-05
k= 13 : RMS U = 6.0220599973535464e-06
k= 14 : RMS U = 3.030789693687113e-06
k= 15 : RMS U = 1.5253395130631854e-06
k= 16 : RMS U = 7.676747382923425e-07
k= 17 : RMS U = 3.8635627251888736e-07
k= 18 : RMS U = 1.944458717510753e-07
k= 19 : RMS U = 9.786097712127639e-08
k= 20 : RMS U = 4.925164374197927e-08
k= 21 : RMS U = 2.4787538340370576e-08
k= 22 : RMS U = 1.2475299792483084e-08
k= 23 : RMS U = 6.278986782262263e-09
k= 24 : RMS U = 3.1608938781523305e-09
k= 25 : RMS U = 1.5924131662978435e-09
The simulation has converged in  26  iterations
Time in seconds =  5.35314203100279
result samples:
u[ 0 ] =  -1.1920951671438927e-07
u[ 419430 ] =  0.04499992482473523
u[ 838860 ] =  0.07999993543679544
u[ 1258290 ] =  0.10499994630079647
u[ 1677720 ] =  0.11999995391834647
u[ 2097150 ] =  0.12499996426193023
u[ 2516580 ] =  0.11999998521222201
u[ 2936010 ] =  0.10500001951243966
u[ 3355440 ] =  0.08000007235141963
u[ 3774870 ] =  0.045000144025146564
u[ 4194300 ] =  2.3841839751250414e-07
Test done
